src/lsfr_test.vcd
$date
	Fri Aug 28 17:44:06 2020
$end
$version
	Icarus Verilog
$end
$timescale
	1ps
$end
$scope module sample_generator_test_tb $end
$var wire 32 ! lfsr_out_w [31:0] $end
$var reg 1 " clock $end
$var reg 1 # reset $end
$var integer 32 $ done [31:0] $end
$var integer 32 % in_seed [31:0] $end
$var integer 32 & niter [31:0] $end
$var integer 32 ' seed [31:0] $end
$var integer 32 ( start [31:0] $end
$scope module uut $end
$var wire 1 " clk $end
$var wire 1 # rst $end
$var wire 1 ) scan_in $end
$var wire 32 * seed [31:0] $end
$var reg 32 + out [31:0] $end
$upscope $end
$upscope $end
$enddefinitions $end
#0
$dumpvars
bx +
b11 *
z)
b0 (
b0 '
b0 &
b11 %
b0 $
0#
0"
bx !
$end
#1000
1#
#2000
b11 !
b11 +
1"
#4000
0"
b1 (
b11 '
0#
#6000
b110 !
b110 +
b1 &
1"
#8000
0"
#10000
b1101 !
b1101 +
b10 &
1"
#12000
0"
#14000
b11011 !
b11011 +
b11 &
1"
#16000
0"
#18000
b110110 !
b110110 +
b100 &
1"
#20000
0"
#22000
b1101101 !
b1101101 +
b101 &
1"
#24000
0"
#26000
b11011011 !
b11011011 +
b110 &
1"
#28000
0"
#30000
b110110110 !
b110110110 +
b111 &
1"
#32000
0"
#34000
b1101101101 !
b1101101101 +
b1000 &
1"
#36000
0"
#38000
b11011011011 !
b11011011011 +
b1001 &
1"
#40000
0"
#42000
b110110110110 !
b110110110110 +
b1010 &
1"
#44000
0"
#46000
b1101101101101 !
b1101101101101 +
b1011 &
1"
#48000
0"
#50000
b11011011011011 !
b11011011011011 +
b1100 &
1"
#52000
0"
#54000
b110110110110110 !
b110110110110110 +
b1101 &
1"
#56000
0"
#58000
b1101101101101101 !
b1101101101101101 +
b1110 &
1"
#60000
0"
#62000
b11011011011011011 !
b11011011011011011 +
b1111 &
1"
#64000
0"
#66000
b110110110110110110 !
b110110110110110110 +
b10000 &
1"
#68000
0"
#70000
b1101101101101101101 !
b1101101101101101101 +
b10001 &
1"
#72000
0"
#74000
b11011011011011011011 !
b11011011011011011011 +
b10010 &
1"
#76000
0"
#78000
b110110110110110110110 !
b110110110110110110110 +
b10011 &
1"
#80000
0"
#82000
b1101101101101101101101 !
b1101101101101101101101 +
b10100 &
1"
#84000
0"
#86000
b11011011011011011011011 !
b11011011011011011011011 +
b10101 &
1"
#88000
0"
#90000
b110110110110110110110111 !
b110110110110110110110111 +
b10110 &
1"
#92000
0"
#94000
b1101101101101101101101111 !
b1101101101101101101101111 +
b10111 &
1"
#96000
0"
#98000
b11011011011011011011011110 !
b11011011011011011011011110 +
b11000 &
1"
#100000
0"
#102000
b110110110110110110110111100 !
b110110110110110110110111100 +
b11001 &
1"
#104000
0"
#106000
b1101101101101101101101111001 !
b1101101101101101101101111001 +
b11010 &
1"
#108000
0"
#110000
b11011011011011011011011110011 !
b11011011011011011011011110011 +
b11011 &
1"
#112000
0"
#114000
b110110110110110110110111100111 !
b110110110110110110110111100111 +
b11100 &
1"
#116000
0"
#118000
b1101101101101101101101111001111 !
b1101101101101101101101111001111 +
b11101 &
1"
#120000
0"
#122000
b11011011011011011011011110011110 !
b11011011011011011011011110011110 +
b11110 &
1"
#124000
0"
#126000
b10110110110110110110111100111101 !
b10110110110110110110111100111101 +
b11111 &
1"
#128000
0"
#130000
b1101101101101101101111001111011 !
b1101101101101101101111001111011 +
b100000 &
1"
#132000
0"
#134000
b11011011011011011011110011110110 !
b11011011011011011011110011110110 +
b100001 &
1"
#136000
0"
#138000
b10110110110110110111100111101101 !
b10110110110110110111100111101101 +
b100010 &
1"
#140000
0"
#142000
b1101101101101101111001111011011 !
b1101101101101101111001111011011 +
b100011 &
1"
#144000
0"
#146000
b11011011011011011110011110110110 !
b11011011011011011110011110110110 +
b100100 &
1"
#148000
0"
#150000
b10110110110110111100111101101101 !
b10110110110110111100111101101101 +
b100101 &
1"
#152000
0"
#154000
b1101101101101111001111011011011 !
b1101101101101111001111011011011 +
b100110 &
1"
#156000
0"
#158000
b11011011011011110011110110110110 !
b11011011011011110011110110110110 +
b100111 &
1"
#160000
0"
#162000
b10110110110111100111101101101101 !
b10110110110111100111101101101101 +
b101000 &
1"
#164000
0"
#166000
b1101101101111001111011011011011 !
b1101101101111001111011011011011 +
b101001 &
1"
#168000
0"
#170000
b11011011011110011110110110110110 !
b11011011011110011110110110110110 +
b101010 &
1"
#172000
0"
#174000
b10110110111100111101101101101101 !
b10110110111100111101101101101101 +
b101011 &
1"
#176000
0"
#178000
b1101101111001111011011011011011 !
b1101101111001111011011011011011 +
b101100 &
1"
#180000
0"
#182000
b11011011110011110110110110110111 !
b11011011110011110110110110110111 +
b101101 &
1"
#184000
0"
#186000
b10110111100111101101101101101110 !
b10110111100111101101101101101110 +
b101110 &
1"
#188000
0"
#190000
b1101111001111011011011011011100 !
b1101111001111011011011011011100 +
b101111 &
1"
#192000
0"
#194000
b11011110011110110110110110111000 !
b11011110011110110110110110111000 +
b110000 &
1"
#196000
0"
#198000
b10111100111101101101101101110000 !
b10111100111101101101101101110000 +
b110001 &
1"
#200000
0"
#202000
b1111001111011011011011011100000 !
b1111001111011011011011011100000 +
b110010 &
1"
#204000
0"
#206000
b11110011110110110110110111000001 !
b11110011110110110110110111000001 +
b110011 &
1"
#208000
0"
#210000
b11100111101101101101101110000011 !
b11100111101101101101101110000011 +
b110100 &
1"
#212000
0"
#214000
b11001111011011011011011100000111 !
b11001111011011011011011100000111 +
b110101 &
1"
#216000
0"
#218000
b10011110110110110110111000001110 !
b10011110110110110110111000001110 +
b110110 &
1"
#220000
0"
#222000
b111101101101101101110000011101 !
b111101101101101101110000011101 +
b110111 &
1"
#224000
0"
#226000
b1111011011011011011100000111011 !
b1111011011011011011100000111011 +
b111000 &
1"
#228000
0"
#230000
b11110110110110110111000001110111 !
b11110110110110110111000001110111 +
b111001 &
1"
#232000
0"
#234000
b11101101101101101110000011101110 !
b11101101101101101110000011101110 +
b111010 &
1"
#236000
0"
#238000
b11011011011011011100000111011100 !
b11011011011011011100000111011100 +
b111011 &
1"
#240000
0"
#242000
b10110110110110111000001110111000 !
b10110110110110111000001110111000 +
b111100 &
1"
#244000
0"
#246000
b1101101101101110000011101110000 !
b1101101101101110000011101110000 +
b111101 &
1"
#248000
0"
#250000
b11011011011011100000111011100000 !
b11011011011011100000111011100000 +
b111110 &
1"
#252000
0"
#254000
b10110110110111000001110111000000 !
b10110110110111000001110111000000 +
b111111 &
1"
#256000
0"
#258000
b1101101101110000011101110000000 !
b1101101101110000011101110000000 +
b1000000 &
1"
#260000
0"
#262000
b11011011011100000111011100000000 !
b11011011011100000111011100000000 +
b1000001 &
1"
#264000
0"
#266000
b10110110111000001110111000000000 !
b10110110111000001110111000000000 +
b1000010 &
1"
#268000
0"
#270000
b1101101110000011101110000000000 !
b1101101110000011101110000000000 +
b1000011 &
1"
#272000
0"
#274000
b11011011100000111011100000000001 !
b11011011100000111011100000000001 +
b1000100 &
1"
#276000
0"
#278000
b10110111000001110111000000000010 !
b10110111000001110111000000000010 +
b1000101 &
1"
#280000
0"
#282000
b1101110000011101110000000000100 !
b1101110000011101110000000000100 +
b1000110 &
1"
#284000
0"
#286000
b11011100000111011100000000001000 !
b11011100000111011100000000001000 +
b1000111 &
1"
#288000
0"
#290000
b10111000001110111000000000010001 !
b10111000001110111000000000010001 +
b1001000 &
1"
#292000
0"
#294000
b1110000011101110000000000100010 !
b1110000011101110000000000100010 +
b1001001 &
1"
#296000
0"
#298000
b11100000111011100000000001000100 !
b11100000111011100000000001000100 +
b1001010 &
1"
#300000
0"
#302000
b11000001110111000000000010001000 !
b11000001110111000000000010001000 +
b1001011 &
1"
#304000
0"
#306000
b10000011101110000000000100010000 !
b10000011101110000000000100010000 +
b1001100 &
1"
#308000
0"
#310000
b111011100000000001000100001 !
b111011100000000001000100001 +
b1001101 &
1"
#312000
0"
#314000
b1110111000000000010001000010 !
b1110111000000000010001000010 +
b1001110 &
1"
#316000
0"
#318000
b11101110000000000100010000100 !
b11101110000000000100010000100 +
b1001111 &
1"
#320000
0"
#322000
b111011100000000001000100001001 !
b111011100000000001000100001001 +
b1010000 &
1"
#324000
0"
#326000
b1110111000000000010001000010011 !
b1110111000000000010001000010011 +
b1010001 &
1"
#328000
0"
#330000
b11101110000000000100010000100110 !
b11101110000000000100010000100110 +
b1010010 &
1"
#332000
0"
#334000
b11011100000000001000100001001100 !
b11011100000000001000100001001100 +
b1010011 &
1"
#336000
0"
#338000
b10111000000000010001000010011001 !
b10111000000000010001000010011001 +
b1010100 &
1"
#340000
0"
#342000
b1110000000000100010000100110010 !
b1110000000000100010000100110010 +
b1010101 &
1"
#344000
0"
#346000
b11100000000001000100001001100101 !
b11100000000001000100001001100101 +
b1010110 &
1"
#348000
0"
#350000
b11000000000010001000010011001010 !
b11000000000010001000010011001010 +
b1010111 &
1"
#352000
0"
#354000
b10000000000100010000100110010100 !
b10000000000100010000100110010100 +
b1011000 &
1"
#356000
0"
#358000
b1000100001001100101001 !
b1000100001001100101001 +
b1011001 &
1"
#360000
0"
#362000
b10001000010011001010011 !
b10001000010011001010011 +
b1011010 &
1"
#364000
0"
#366000
b100010000100110010100111 !
b100010000100110010100111 +
b1011011 &
1"
#368000
0"
#370000
b1000100001001100101001110 !
b1000100001001100101001110 +
b1011100 &
1"
#372000
0"
#374000
b10001000010011001010011101 !
b10001000010011001010011101 +
b1011101 &
1"
#376000
0"
#378000
b100010000100110010100111011 !
b100010000100110010100111011 +
b1011110 &
1"
#380000
0"
#382000
b1000100001001100101001110111 !
b1000100001001100101001110111 +
b1011111 &
1"
#384000
0"
#386000
b10001000010011001010011101110 !
b10001000010011001010011101110 +
b1100000 &
1"
#388000
0"
#390000
b100010000100110010100111011101 !
b100010000100110010100111011101 +
b1100001 &
1"
#392000
0"
#394000
b1000100001001100101001110111011 !
b1000100001001100101001110111011 +
b1100010 &
1"
#396000
0"
#398000
b10001000010011001010011101110110 !
b10001000010011001010011101110110 +
b1100011 &
1"
#400000
0"
#402000
b10000100110010100111011101101 !
b10000100110010100111011101101 +
b1100100 &
1"
#404000
0"
#406000
b100001001100101001110111011011 !
b100001001100101001110111011011 +
b1100101 &
1"
#408000
0"
#410000
b1000010011001010011101110110110 !
b1000010011001010011101110110110 +
b1100110 &
1"
#412000
0"
#414000
b10000100110010100111011101101100 !
b10000100110010100111011101101100 +
b1100111 &
1"
#416000
0"
#418000
b1001100101001110111011011000 !
b1001100101001110111011011000 +
b1101000 &
1"
#420000
0"
#422000
b10011001010011101110110110000 !
b10011001010011101110110110000 +
b1101001 &
1"
#424000
0"
#426000
b100110010100111011101101100000 !
b100110010100111011101101100000 +
b1101010 &
1"
#428000
0"
#430000
b1001100101001110111011011000001 !
b1001100101001110111011011000001 +
b1101011 &
1"
#432000
0"
#434000
b10011001010011101110110110000011 !
b10011001010011101110110110000011 +
b1101100 &
1"
#436000
0"
#438000
b110010100111011101101100000110 !
b110010100111011101101100000110 +
b1101101 &
1"
#440000
0"
#442000
b1100101001110111011011000001101 !
b1100101001110111011011000001101 +
b1101110 &
1"
#444000
0"
#446000
b11001010011101110110110000011011 !
b11001010011101110110110000011011 +
b1101111 &
1"
#448000
0"
#450000
b10010100111011101101100000110110 !
b10010100111011101101100000110110 +
b1110000 &
1"
#452000
0"
#454000
b101001110111011011000001101101 !
b101001110111011011000001101101 +
b1110001 &
1"
#456000
0"
#458000
b1010011101110110110000011011010 !
b1010011101110110110000011011010 +
b1110010 &
1"
#460000
0"
#462000
b10100111011101101100000110110101 !
b10100111011101101100000110110101 +
b1110011 &
1"
#464000
0"
#466000
b1001110111011011000001101101011 !
b1001110111011011000001101101011 +
b1110100 &
1"
#468000
0"
#470000
b10011101110110110000011011010111 !
b10011101110110110000011011010111 +
b1110101 &
1"
#472000
0"
#474000
b111011101101100000110110101110 !
b111011101101100000110110101110 +
b1110110 &
1"
#476000
0"
#478000
b1110111011011000001101101011101 !
b1110111011011000001101101011101 +
b1110111 &
1"
#480000
0"
#482000
b11101110110110000011011010111010 !
b11101110110110000011011010111010 +
b1111000 &
1"
#484000
0"
#486000
b11011101101100000110110101110101 !
b11011101101100000110110101110101 +
b1111001 &
1"
#488000
0"
#490000
b10111011011000001101101011101010 !
b10111011011000001101101011101010 +
b1111010 &
1"
#492000
0"
#494000
b1110110110000011011010111010101 !
b1110110110000011011010111010101 +
b1111011 &
1"
#496000
0"
#498000
b11101101100000110110101110101010 !
b11101101100000110110101110101010 +
b1111100 &
1"
#500000
0"
#502000
b11011011000001101101011101010100 !
b11011011000001101101011101010100 +
b1111101 &
1"
#504000
0"
#506000
b10110110000011011010111010101001 !
b10110110000011011010111010101001 +
b1111110 &
1"
#508000
0"
#510000
b1101100000110110101110101010010 !
b1101100000110110101110101010010 +
b1111111 &
1"
#512000
0"
#514000
b11011000001101101011101010100101 !
b11011000001101101011101010100101 +
b10000000 &
1"
#516000
0"
#518000
b10110000011011010111010101001010 !
b10110000011011010111010101001010 +
b10000001 &
1"
#520000
0"
#522000
b1100000110110101110101010010101 !
b1100000110110101110101010010101 +
b10000010 &
1"
#524000
0"
#526000
b11000001101101011101010100101010 !
b11000001101101011101010100101010 +
b10000011 &
1"
#528000
0"
#530000
b10000011011010111010101001010100 !
b10000011011010111010101001010100 +
b10000100 &
1"
#532000
0"
#534000
b110110101110101010010101000 !
b110110101110101010010101000 +
b10000101 &
1"
#536000
0"
#538000
b1101101011101010100101010001 !
b1101101011101010100101010001 +
b10000110 &
1"
#540000
0"
#542000
b11011010111010101001010100011 !
b11011010111010101001010100011 +
b10000111 &
1"
#544000
0"
#546000
b110110101110101010010101000111 !
b110110101110101010010101000111 +
b10001000 &
1"
#548000
0"
#550000
b1101101011101010100101010001110 !
b1101101011101010100101010001110 +
b10001001 &
1"
#552000
0"
#554000
b11011010111010101001010100011100 !
b11011010111010101001010100011100 +
b10001010 &
1"
#556000
0"
#558000
b10110101110101010010101000111000 !
b10110101110101010010101000111000 +
b10001011 &
1"
#560000
0"
#562000
b1101011101010100101010001110000 !
b1101011101010100101010001110000 +
b10001100 &
1"
#564000
0"
#566000
b11010111010101001010100011100000 !
b11010111010101001010100011100000 +
b10001101 &
1"
#568000
0"
#570000
b10101110101010010101000111000000 !
b10101110101010010101000111000000 +
b10001110 &
1"
#572000
0"
#574000
b1011101010100101010001110000001 !
b1011101010100101010001110000001 +
b10001111 &
1"
#576000
0"
#578000
b10111010101001010100011100000010 !
b10111010101001010100011100000010 +
b10010000 &
1"
#580000
0"
#582000
b1110101010010101000111000000100 !
b1110101010010101000111000000100 +
b10010001 &
1"
#584000
0"
#586000
b11101010100101010001110000001001 !
b11101010100101010001110000001001 +
b10010010 &
1"
#588000
0"
#590000
b11010101001010100011100000010010 !
b11010101001010100011100000010010 +
b10010011 &
1"
#592000
0"
#594000
b10101010010101000111000000100100 !
b10101010010101000111000000100100 +
b10010100 &
1"
#596000
0"
#598000
b1010100101010001110000001001000 !
b1010100101010001110000001001000 +
b10010101 &
1"
#600000
0"
#602000
b10101001010100011100000010010000 !
b10101001010100011100000010010000 +
b10010110 &
1"
#604000
0"
#606000
b1010010101000111000000100100000 !
b1010010101000111000000100100000 +
b10010111 &
1"
#608000
0"
#610000
b10100101010001110000001001000000 !
b10100101010001110000001001000000 +
b10011000 &
1"
#612000
0"
#614000
b1001010100011100000010010000000 !
b1001010100011100000010010000000 +
b10011001 &
1"
#616000
0"
#618000
b10010101000111000000100100000000 !
b10010101000111000000100100000000 +
b10011010 &
1"
#620000
0"
#622000
b101010001110000001001000000001 !
b101010001110000001001000000001 +
b10011011 &
1"
#624000
0"
#626000
b1010100011100000010010000000011 !
b1010100011100000010010000000011 +
b10011100 &
1"
#628000
0"
#630000
b10101000111000000100100000000111 !
b10101000111000000100100000000111 +
b10011101 &
1"
#632000
0"
#634000
b1010001110000001001000000001110 !
b1010001110000001001000000001110 +
b10011110 &
1"
#636000
0"
#638000
b10100011100000010010000000011100 !
b10100011100000010010000000011100 +
b10011111 &
1"
#640000
0"
#642000
b1000111000000100100000000111001 !
b1000111000000100100000000111001 +
b10100000 &
1"
#644000
0"
#646000
b10001110000001001000000001110011 !
b10001110000001001000000001110011 +
b10100001 &
1"
#648000
0"
#650000
b11100000010010000000011100111 !
b11100000010010000000011100111 +
b10100010 &
1"
#652000
0"
#654000
b111000000100100000000111001110 !
b111000000100100000000111001110 +
b10100011 &
1"
#656000
0"
#658000
b1110000001001000000001110011101 !
b1110000001001000000001110011101 +
b10100100 &
1"
#660000
0"
#662000
b11100000010010000000011100111011 !
b11100000010010000000011100111011 +
b10100101 &
1"
#664000
0"
#666000
b11000000100100000000111001110110 !
b11000000100100000000111001110110 +
b10100110 &
1"
#668000
0"
#670000
b10000001001000000001110011101100 !
b10000001001000000001110011101100 +
b10100111 &
1"
#672000
0"
#674000
b10010000000011100111011001 !
b10010000000011100111011001 +
b10101000 &
1"
#676000
0"
#678000
b100100000000111001110110010 !
b100100000000111001110110010 +
b10101001 &
1"
#680000
0"
#682000
b1001000000001110011101100101 !
b1001000000001110011101100101 +
b10101010 &
1"
#684000
0"
#686000
b10010000000011100111011001011 !
b10010000000011100111011001011 +
b10101011 &
1"
#688000
0"
#690000
b100100000000111001110110010110 !
b100100000000111001110110010110 +
b10101100 &
1"
#692000
0"
#694000
b1001000000001110011101100101101 !
b1001000000001110011101100101101 +
b10101101 &
1"
#696000
0"
#698000
b10010000000011100111011001011011 !
b10010000000011100111011001011011 +
b10101110 &
1"
#700000
0"
#702000
b100000000111001110110010110111 !
b100000000111001110110010110111 +
b10101111 &
1"
#704000
0"
#706000
b1000000001110011101100101101110 !
b1000000001110011101100101101110 +
b10110000 &
1"
#708000
0"
#710000
b10000000011100111011001011011101 !
b10000000011100111011001011011101 +
b10110001 &
1"
#712000
0"
#714000
b111001110110010110111011 !
b111001110110010110111011 +
b10110010 &
1"
#716000
0"
#718000
b1110011101100101101110111 !
b1110011101100101101110111 +
b10110011 &
1"
#720000
0"
#722000
b11100111011001011011101111 !
b11100111011001011011101111 +
b10110100 &
1"
#724000
0"
#726000
b111001110110010110111011110 !
b111001110110010110111011110 +
b10110101 &
1"
#728000
0"
#730000
b1110011101100101101110111101 !
b1110011101100101101110111101 +
b10110110 &
1"
#732000
0"
#734000
b11100111011001011011101111010 !
b11100111011001011011101111010 +
b10110111 &
1"
#736000
0"
#738000
b111001110110010110111011110100 !
b111001110110010110111011110100 +
b10111000 &
1"
#740000
0"
#742000
b1110011101100101101110111101001 !
b1110011101100101101110111101001 +
b10111001 &
1"
#744000
0"
#746000
b11100111011001011011101111010011 !
b11100111011001011011101111010011 +
b10111010 &
1"
#748000
0"
#750000
b11001110110010110111011110100110 !
b11001110110010110111011110100110 +
b10111011 &
1"
#752000
0"
#754000
b10011101100101101110111101001101 !
b10011101100101101110111101001101 +
b10111100 &
1"
#756000
0"
#758000
b111011001011011101111010011010 !
b111011001011011101111010011010 +
b10111101 &
1"
#760000
0"
#762000
b1110110010110111011110100110101 !
b1110110010110111011110100110101 +
b10111110 &
1"
#764000
0"
#766000
b11101100101101110111101001101010 !
b11101100101101110111101001101010 +
b10111111 &
1"
#768000
0"
#770000
b11011001011011101111010011010100 !
b11011001011011101111010011010100 +
b11000000 &
1"
#772000
0"
#774000
b10110010110111011110100110101000 !
b10110010110111011110100110101000 +
b11000001 &
1"
#776000
0"
#778000
b1100101101110111101001101010000 !
b1100101101110111101001101010000 +
b11000010 &
1"
#780000
0"
#782000
b11001011011101111010011010100000 !
b11001011011101111010011010100000 +
b11000011 &
1"
#784000
0"
#786000
b10010110111011110100110101000000 !
b10010110111011110100110101000000 +
b11000100 &
1"
#788000
0"
#790000
b101101110111101001101010000000 !
b101101110111101001101010000000 +
b11000101 &
1"
#792000
0"
#794000
b1011011101111010011010100000001 !
b1011011101111010011010100000001 +
b11000110 &
1"
#796000
0"
#798000
b10110111011110100110101000000011 !
b10110111011110100110101000000011 +
b11000111 &
1"
#800000
0"
#802000
b1101110111101001101010000000110 !
b1101110111101001101010000000110 +
b11001000 &
1"
#804000
0"
#806000
b11011101111010011010100000001100 !
b11011101111010011010100000001100 +
b11001001 &
1"
#808000
0"
#810000
b10111011110100110101000000011000 !
b10111011110100110101000000011000 +
b11001010 &
1"
#812000
0"
#814000
b1110111101001101010000000110000 !
b1110111101001101010000000110000 +
b11001011 &
1"
#816000
0"
#818000
b11101111010011010100000001100000 !
b11101111010011010100000001100000 +
b11001100 &
1"
#820000
0"
#822000
b11011110100110101000000011000000 !
b11011110100110101000000011000000 +
b11001101 &
1"
#824000
0"
#826000
b10111101001101010000000110000001 !
b10111101001101010000000110000001 +
b11001110 &
1"
#828000
0"
#830000
b1111010011010100000001100000010 !
b1111010011010100000001100000010 +
b11001111 &
1"
#832000
0"
#834000
b11110100110101000000011000000100 !
b11110100110101000000011000000100 +
b11010000 &
1"
#836000
0"
#838000
b11101001101010000000110000001000 !
b11101001101010000000110000001000 +
b11010001 &
1"
#840000
0"
#842000
b11010011010100000001100000010001 !
b11010011010100000001100000010001 +
b11010010 &
1"
#844000
0"
#846000
b10100110101000000011000000100011 !
b10100110101000000011000000100011 +
b11010011 &
1"
#848000
0"
#850000
b1001101010000000110000001000111 !
b1001101010000000110000001000111 +
b11010100 &
1"
#852000
0"
#854000
b10011010100000001100000010001111 !
b10011010100000001100000010001111 +
b11010101 &
1"
#856000
0"
#858000
b110101000000011000000100011111 !
b110101000000011000000100011111 +
b11010110 &
1"
#860000
0"
#862000
b1101010000000110000001000111110 !
b1101010000000110000001000111110 +
b11010111 &
1"
#864000
0"
#866000
b11010100000001100000010001111101 !
b11010100000001100000010001111101 +
b11011000 &
1"
#868000
0"
#870000
b10101000000011000000100011111010 !
b10101000000011000000100011111010 +
b11011001 &
1"
#872000
0"
#874000
b1010000000110000001000111110100 !
b1010000000110000001000111110100 +
b11011010 &
1"
#876000
0"
#878000
b10100000001100000010001111101000 !
b10100000001100000010001111101000 +
b11011011 &
1"
#880000
0"
#882000
b1000000011000000100011111010001 !
b1000000011000000100011111010001 +
b11011100 &
1"
#884000
0"
#886000
b10000000110000001000111110100010 !
b10000000110000001000111110100010 +
b11011101 &
1"
#888000
0"
#890000
b1100000010001111101000101 !
b1100000010001111101000101 +
b11011110 &
1"
#892000
0"
#894000
b11000000100011111010001011 !
b11000000100011111010001011 +
b11011111 &
1"
#896000
0"
#898000
b110000001000111110100010110 !
b110000001000111110100010110 +
b11100000 &
1"
#900000
0"
#902000
b1100000010001111101000101101 !
b1100000010001111101000101101 +
b11100001 &
1"
#904000
0"
#906000
b11000000100011111010001011011 !
b11000000100011111010001011011 +
b11100010 &
1"
#908000
0"
#910000
b110000001000111110100010110110 !
b110000001000111110100010110110 +
b11100011 &
1"
#912000
0"
#914000
b1100000010001111101000101101101 !
b1100000010001111101000101101101 +
b11100100 &
1"
#916000
0"
#918000
b11000000100011111010001011011010 !
b11000000100011111010001011011010 +
b11100101 &
1"
#920000
0"
#922000
b10000001000111110100010110110100 !
b10000001000111110100010110110100 +
b11100110 &
1"
#924000
0"
#926000
b10001111101000101101101001 !
b10001111101000101101101001 +
b11100111 &
1"
#928000
0"
#930000
b100011111010001011011010011 !
b100011111010001011011010011 +
b11101000 &
1"
#932000
0"
#934000
b1000111110100010110110100111 !
b1000111110100010110110100111 +
b11101001 &
1"
#936000
0"
#938000
b10001111101000101101101001111 !
b10001111101000101101101001111 +
b11101010 &
1"
#940000
0"
#942000
b100011111010001011011010011111 !
b100011111010001011011010011111 +
b11101011 &
1"
#944000
0"
#946000
b1000111110100010110110100111111 !
b1000111110100010110110100111111 +
b11101100 &
1"
#948000
0"
#950000
b10001111101000101101101001111111 !
b10001111101000101101101001111111 +
b11101101 &
1"
#952000
0"
#954000
b11111010001011011010011111111 !
b11111010001011011010011111111 +
b11101110 &
1"
#956000
0"
#958000
b111110100010110110100111111111 !
b111110100010110110100111111111 +
b11101111 &
1"
#960000
0"
#962000
b1111101000101101101001111111110 !
b1111101000101101101001111111110 +
b11110000 &
1"
#964000
0"
#966000
b11111010001011011010011111111101 !
b11111010001011011010011111111101 +
b11110001 &
1"
#968000
0"
#970000
b11110100010110110100111111111010 !
b11110100010110110100111111111010 +
b11110010 &
1"
#972000
0"
#974000
b11101000101101101001111111110101 !
b11101000101101101001111111110101 +
b11110011 &
1"
#976000
0"
#978000
b11010001011011010011111111101010 !
b11010001011011010011111111101010 +
b11110100 &
1"
#980000
0"
#982000
b10100010110110100111111111010101 !
b10100010110110100111111111010101 +
b11110101 &
1"
#984000
0"
#986000
b1000101101101001111111110101011 !
b1000101101101001111111110101011 +
b11110110 &
1"
#988000
0"
#990000
b10001011011010011111111101010110 !
b10001011011010011111111101010110 +
b11110111 &
1"
#992000
0"
#994000
b10110110100111111111010101101 !
b10110110100111111111010101101 +
b11111000 &
1"
#996000
0"
#998000
b101101101001111111110101011010 !
b101101101001111111110101011010 +
b11111001 &
1"
#1000000
0"
#1002000
b1011011010011111111101010110101 !
b1011011010011111111101010110101 +
b11111010 &
1"
#1004000
0"
#1006000
b10110110100111111111010101101010 !
b10110110100111111111010101101010 +
b11111011 &
1"
#1008000
0"
#1010000
b1101101001111111110101011010100 !
b1101101001111111110101011010100 +
b11111100 &
1"
#1012000
0"
#1014000
b11011010011111111101010110101000 !
b11011010011111111101010110101000 +
b11111101 &
1"
#1016000
0"
#1018000
b10110100111111111010101101010000 !
b10110100111111111010101101010000 +
b11111110 &
1"
#1020000
0"
#1022000
b1101001111111110101011010100000 !
b1101001111111110101011010100000 +
b11111111 &
1"
#1024000
0"
#1026000
b11010011111111101010110101000001 !
b11010011111111101010110101000001 +
b100000000 &
1"
#1028000
0"
#1030000
b10100111111111010101101010000011 !
b10100111111111010101101010000011 +
b100000001 &
1"
#1032000
0"
#1034000
b1001111111110101011010100000110 !
b1001111111110101011010100000110 +
b100000010 &
1"
#1036000
0"
#1038000
b10011111111101010110101000001100 !
b10011111111101010110101000001100 +
b100000011 &
1"
#1040000
0"
#1042000
b111111111010101101010000011000 !
b111111111010101101010000011000 +
b100000100 &
1"
#1044000
0"
#1046000
b1111111110101011010100000110001 !
b1111111110101011010100000110001 +
b100000101 &
1"
#1048000
0"
#1050000
b11111111101010110101000001100010 !
b11111111101010110101000001100010 +
b100000110 &
1"
#1052000
0"
#1054000
b11111111010101101010000011000100 !
b11111111010101101010000011000100 +
b100000111 &
1"
#1056000
0"
#1058000
b11111110101011010100000110001000 !
b11111110101011010100000110001000 +
b100001000 &
1"
#1060000
0"
#1062000
b11111101010110101000001100010001 !
b11111101010110101000001100010001 +
b100001001 &
1"
#1064000
0"
#1066000
b11111010101101010000011000100011 !
b11111010101101010000011000100011 +
b100001010 &
1"
#1068000
0"
#1070000
b11110101011010100000110001000111 !
b11110101011010100000110001000111 +
b100001011 &
1"
#1072000
0"
#1074000
b11101010110101000001100010001110 !
b11101010110101000001100010001110 +
b100001100 &
1"
#1076000
0"
#1078000
b11010101101010000011000100011101 !
b11010101101010000011000100011101 +
b100001101 &
1"
#1080000
0"
#1082000
b10101011010100000110001000111010 !
b10101011010100000110001000111010 +
b100001110 &
1"
#1084000
0"
#1086000
b1010110101000001100010001110101 !
b1010110101000001100010001110101 +
b100001111 &
1"
#1088000
0"
#1090000
b10101101010000011000100011101011 !
b10101101010000011000100011101011 +
b100010000 &
1"
#1092000
0"
#1094000
b1011010100000110001000111010110 !
b1011010100000110001000111010110 +
b100010001 &
1"
#1096000
0"
#1098000
b10110101000001100010001110101101 !
b10110101000001100010001110101101 +
b100010010 &
1"
#1100000
0"
#1102000
b1101010000011000100011101011010 !
b1101010000011000100011101011010 +
b100010011 &
1"
#1104000
0"
#1106000
b11010100000110001000111010110101 !
b11010100000110001000111010110101 +
b100010100 &
1"
#1108000
0"
#1110000
b10101000001100010001110101101010 !
b10101000001100010001110101101010 +
b100010101 &
1"
#1112000
0"
#1114000
b1010000011000100011101011010100 !
b1010000011000100011101011010100 +
b100010110 &
1"
#1116000
0"
#1118000
b10100000110001000111010110101001 !
b10100000110001000111010110101001 +
b100010111 &
1"
#1120000
0"
#1122000
b1000001100010001110101101010011 !
b1000001100010001110101101010011 +
b100011000 &
1"
#1124000
0"
#1126000
b10000011000100011101011010100110 !
b10000011000100011101011010100110 +
b100011001 &
1"
#1128000
0"
#1130000
b110001000111010110101001100 !
b110001000111010110101001100 +
b100011010 &
1"
#1132000
0"
#1134000
b1100010001110101101010011000 !
b1100010001110101101010011000 +
b100011011 &
1"
#1136000
0"
#1138000
b11000100011101011010100110001 !
b11000100011101011010100110001 +
b100011100 &
1"
#1140000
0"
#1142000
b110001000111010110101001100011 !
b110001000111010110101001100011 +
b100011101 &
1"
#1144000
0"
#1146000
b1100010001110101101010011000110 !
b1100010001110101101010011000110 +
b100011110 &
1"
#1148000
0"
#1150000
b11000100011101011010100110001101 !
b11000100011101011010100110001101 +
b100011111 &
1"
#1152000
0"
#1154000
b10001000111010110101001100011011 !
b10001000111010110101001100011011 +
b100100000 &
1"
#1156000
0"
#1158000
b10001110101101010011000110110 !
b10001110101101010011000110110 +
b100100001 &
1"
#1160000
0"
#1162000
b100011101011010100110001101100 !
b100011101011010100110001101100 +
b100100010 &
1"
#1164000
0"
#1166000
b1000111010110101001100011011000 !
b1000111010110101001100011011000 +
b100100011 &
1"
#1168000
0"
#1170000
b10001110101101010011000110110001 !
b10001110101101010011000110110001 +
b100100100 &
1"
#1172000
0"
#1174000
b11101011010100110001101100010 !
b11101011010100110001101100010 +
b100100101 &
1"
#1176000
0"
#1178000
b111010110101001100011011000100 !
b111010110101001100011011000100 +
b100100110 &
1"
#1180000
0"
