src/top_test.vcd
$date
	Fri Sep  4 18:04:39 2020
$end
$version
	Icarus Verilog
$end
$timescale
	1ps
$end
$scope module audio_clock_mux $end
$var wire 1 ! clk_48k $end
$var wire 1 " clk_88_2k $end
$var wire 1 # clk_96k $end
$var wire 4 $ clk_sel [3:0] $end
$var wire 1 % clk_out $end
$upscope $end
$scope module top_tb $end
$var wire 1 & I2S_WORD_SELECT $end
$var wire 1 ' I2S_DATA_OUT $end
$var wire 1 ( I2S_CLK_OUT $end
$var reg 1 ) CLK $end
$var reg 1 * RST $end
$scope module uut $end
$var wire 8 + FIFO_IO [7:0] $end
$var wire 1 , FIFO_PWREN $end
$var wire 1 - FIFO_RD $end
$var wire 1 . FIFO_RST $end
$var wire 1 / FIFO_RXF $end
$var wire 1 0 FIFO_TXE $end
$var wire 1 1 FIFO_WR $end
$var wire 1 2 audio_clk_out $end
$var wire 1 ) fpga_clk $end
$var wire 1 3 main_clk $end
$var wire 1 4 main_rst $end
$var wire 1 * nrst $end
$var wire 32 5 sample_processor_out [31:0] $end
$var wire 8 6 sample_gen_out [7:0] $end
$var wire 1 7 data_stream_start $end
$var wire 1 & I2S_word_select $end
$var wire 1 ' I2S_data_out $end
$var wire 1 ( I2S_clk_out $end
$var reg 8 8 LED [7:0] $end
$scope module I2S_shift_register1 $end
$var wire 1 2 clk $end
$var wire 1 4 rst $end
$var wire 4 9 sample_size [3:0] $end
$var wire 1 & word_select $end
$var wire 1 7 start $end
$var wire 32 : sample_right [31:0] $end
$var wire 32 ; sample_left [31:0] $end
$var reg 8 < bit_counter_left [7:0] $end
$var reg 8 = bit_counter_right [7:0] $end
$var reg 1 > busy_left $end
$var reg 1 ? busy_right $end
$var reg 1 ( clk_out $end
$var reg 8 @ counter_size [7:0] $end
$var reg 1 A current_out $end
$var reg 1 ' data_out $end
$var reg 4 B next_state [3:0] $end
$var reg 8 C sample_left_r [7:0] $end
$var reg 8 D sample_right_r [7:0] $end
$var reg 4 E state [3:0] $end
$upscope $end
$scope module sample_generator1 $end
$var wire 1 2 clk $end
$var wire 1 4 rst $end
$var wire 32 F seed [31:0] $end
$var reg 32 G out [31:0] $end
$upscope $end
$scope module sample_processor1 $end
$var wire 1 2 clk $end
$var wire 1 H data_available $end
$var wire 8 I data_in [7:0] $end
$var wire 32 J data_out [31:0] $end
$var wire 1 4 rst $end
$var wire 1 K rst_condition $end
$var wire 4 L sample_size [3:0] $end
$var reg 4 M current_block_n [3:0] $end
$var reg 1 7 data_ready $end
$var reg 4 N n_blocks_per_sample [3:0] $end
$var reg 32 O sample_mask [31:0] $end
$upscope $end
$upscope $end
$upscope $end
$enddefinitions $end
#0
$dumpvars
b1111111111111111 O
b10 N
bx M
b11 L
1K
b0xxxxxxxxxxxxxxxx J
bx I
0H
bx G
b1010 F
bx E
bx D
bx C
bx B
xA
b10000 @
x?
x>
bx =
bx <
b0xxxxxxxxxxxxxxxx ;
b0xxxxxxxxxxxxxxxx :
b11 9
bx 8
x7
bx 6
b0xxxxxxxxxxxxxxxx 5
14
13
12
z1
z0
z/
z.
z-
z,
bz +
0*
1)
x(
x'
x&
z%
bz $
z#
z"
z!
$end
#2000
02
03
0)
#4000
b0 B
b1010 6
b1010 I
0&
0A
0(
0'
0>
0?
b0 D
b0 C
b0 E
b0 M
07
b1010 G
b0 5
b0 :
b0 ;
b0 J
12
13
1)
#6000
0K
04
02
03
0)
1*
#8000
b10101 6
b10101 I
b1010 5
b1010 :
b1010 ;
b1010 J
b10101 G
b1 M
12
13
1)
#10000
02
03
0)
#12000
b1010100001010 5
b1010100001010 :
b1010100001010 ;
b1010100001010 J
b101011 6
b101011 I
b10 M
b101011 G
12
13
1)
#14000
02
03
0)
#16000
b1010110 6
b1010110 I
1K
b1 B
b1010110 G
17
12
13
1)
#18000
02
03
0)
#20000
0K
b11 B
b10101101 6
b10101101 I
b1 E
b0 M
07
b10101101 G
b0 5
b0 :
b0 ;
b0 J
12
13
1)
#22000
02
03
0)
#24000
b1011011 6
b1011011 I
b10101101 5
b10101101 :
b10101101 ;
b10101101 J
b101011011 G
b1 M
b11 E
b10001 <
b10001 =
12
13
1)
#26000
02
03
0)
#28000
b101101110101101 5
b101101110101101 :
b101101110101101 ;
b101101110101101 J
b10110110 6
b10110110 I
b10000 <
b10 M
b1010110110 G
12
13
1)
#30000
02
03
0)
#32000
b1101101 6
b1101101 I
1K
b10101101101 G
17
b1111 <
12
13
1)
#34000
02
03
0)
#36000
0K
b11011011 6
b11011011 I
b1110 <
b0 M
07
b101011011011 G
b0 5
b0 :
b0 ;
b0 J
12
13
1)
#38000
02
03
0)
#40000
b10110110 6
b10110110 I
b11011011 5
b11011011 :
b11011011 ;
b11011011 J
b1010110110110 G
b1 M
b1101 <
12
13
1)
#42000
02
03
0)
#44000
b1011011011011011 5
b1011011011011011 :
b1011011011011011 ;
b1011011011011011 J
b1101101 6
b1101101 I
b1100 <
b10 M
b10101101101101 G
12
13
1)
#46000
02
03
0)
#48000
b11011011 6
b11011011 I
1K
b101011011011011 G
17
b1011 <
12
13
1)
#50000
02
03
0)
#52000
0K
b10110110 6
b10110110 I
b1010 <
b0 M
07
b1010110110110110 G
b0 5
b0 :
b0 ;
b0 J
12
13
1)
#54000
02
03
0)
#56000
b1101101 6
b1101101 I
b10110110 5
b10110110 :
b10110110 ;
b10110110 J
b10101101101101101 G
b1 M
b1001 <
12
13
1)
#58000
02
03
0)
#60000
b110110110110110 5
b110110110110110 :
b110110110110110 ;
b110110110110110 J
b11011011 6
b11011011 I
b1000 <
b10 M
b101011011011011011 G
12
13
1)
#62000
02
03
0)
#64000
b10110110 6
b10110110 I
1K
b1010110110110110110 G
17
b111 <
12
13
1)
#66000
02
03
0)
#68000
0K
b1101101 6
b1101101 I
b110 <
b0 M
07
b10101101101101101101 G
b0 5
b0 :
b0 ;
b0 J
12
13
1)
#70000
02
03
0)
#72000
b11011011 6
b11011011 I
b1101101 5
b1101101 :
b1101101 ;
b1101101 J
b101011011011011011011 G
b1 M
b101 <
12
13
1)
#74000
02
03
0)
#76000
b1101101101101101 5
b1101101101101101 :
b1101101101101101 ;
b1101101101101101 J
b10110110 6
b10110110 I
b100 <
b10 M
b1010110110110110110110 G
12
13
1)
#78000
02
03
0)
#80000
b1101101 6
b1101101 I
1K
b10101101101101101101101 G
17
b11 <
12
13
1)
#82000
02
03
0)
#84000
0K
b11011010 6
b11011010 I
b10 <
b0 M
07
b101011011011011011011010 G
b0 5
b0 :
b0 ;
b0 J
12
13
1)
#86000
02
03
0)
#88000
b10110101 6
b10110101 I
b11011010 5
b11011010 :
b11011010 ;
b11011010 J
b1010110110110110110110101 G
b1 M
b1 <
12
13
1)
#90000
02
03
0)
#92000
b1011010111011010 5
b1011010111011010 :
b1011010111011010 ;
b1011010111011010 J
b1101010 6
b1101010 I
b0 <
b10 M
b10101101101101101101101010 G
12
13
1)
#94000
02
03
0)
#96000
b11010101 6
b11010101 I
1K
b101011011011011011011010101 G
17
b10000 <
b11011010 D
1&
1A
12
13
1)
#98000
02
03
0)
#100000
0K
b10101010 6
b10101010 I
b10000 =
b1101101 D
b0 M
07
b1010110110110110110110101010 G
b0 5
b0 :
b0 ;
b0 J
12
13
1)
#102000
02
03
0)
#104000
b1010100 6
b1010100 I
b10101010 5
b10101010 :
b10101010 ;
b10101010 J
b10101101101101101101101010100 G
b1 M
b1111 =
b110110 D
1'
12
13
1)
#106000
02
03
0)
#108000
b101010010101010 5
b101010010101010 :
b101010010101010 ;
b101010010101010 J
b10101000 6
b10101000 I
b1110 =
b11011 D
0'
b10 M
b101011011011011011011010101000 G
12
13
1)
#110000
02
03
0)
#112000
b1010001 6
b1010001 I
1K
b1010110110110110110110101010001 G
17
b1101 =
b1101 D
1'
12
13
1)
#114000
02
03
0)
#116000
0K
b10100010 6
b10100010 I
b1100 =
b110 D
b0 M
07
b10101101101101101101101010100010 G
b0 5
b0 :
b0 ;
b0 J
12
13
1)
#118000
02
03
0)
#120000
b1000100 6
b1000100 I
b10100010 5
b10100010 :
b10100010 ;
b10100010 J
b1011011011011011011010101000100 G
b1 M
b1011 =
b11 D
0'
12
13
1)
#122000
02
03
0)
#124000
b100010010100010 5
b100010010100010 :
b100010010100010 ;
b100010010100010 J
b10001001 6
b10001001 I
b1010 =
b1 D
1'
b10 M
b10110110110110110110101010001001 G
12
13
1)
#126000
02
03
0)
#128000
b10011 6
b10011 I
1K
b1101101101101101101010100010011 G
17
b1001 =
b0 D
12
13
1)
#130000
02
03
0)
#132000
0K
b100110 6
b100110 I
b1000 =
0'
b0 M
07
b11011011011011011010101000100110 G
b0 5
b0 :
b0 ;
b0 J
12
13
1)
#134000
02
03
0)
#136000
b1001101 6
b1001101 I
b100110 5
b100110 :
b100110 ;
b100110 J
b10110110110110110101010001001101 G
b1 M
b111 =
12
13
1)
#138000
02
03
0)
#140000
b100110100100110 5
b100110100100110 :
b100110100100110 ;
b100110100100110 J
b10011011 6
b10011011 I
b110 =
b10 M
b1101101101101101010100010011011 G
12
13
1)
#142000
02
03
0)
#144000
b110110 6
b110110 I
1K
b11011011011011010101000100110110 G
17
b101 =
12
13
1)
#146000
02
03
0)
#148000
0K
b1101101 6
b1101101 I
b100 =
b0 M
07
b10110110110110101010001001101101 G
b0 5
b0 :
b0 ;
b0 J
12
13
1)
#150000
02
03
0)
#152000
b11011011 6
b11011011 I
b1101101 5
b1101101 :
b1101101 ;
b1101101 J
b1101101101101010100010011011011 G
b1 M
b11 =
12
13
1)
#154000
02
03
0)
#156000
b1101101101101101 5
b1101101101101101 :
b1101101101101101 ;
b1101101101101101 J
b10110110 6
b10110110 I
b10 =
b10 M
b11011011011010101000100110110110 G
12
13
1)
#158000
02
03
0)
#160000
b1101101 6
b1101101 I
1K
b10110110110101010001001101101101 G
17
b1 =
12
13
1)
#162000
02
03
0)
#164000
0K
b11011011 6
b11011011 I
b0 =
b0 M
07
b1101101101010100010011011011011 G
b0 5
b0 :
b0 ;
b0 J
12
13
1)
#166000
02
03
0)
#168000
b10110110 6
b10110110 I
b11011011 5
b11011011 :
b11011011 ;
b11011011 J
b11011011010101000100110110110110 G
b1 M
b10000 =
0&
0A
12
13
1)
#170000
02
03
0)
#172000
b1011011011011011 5
b1011011011011011 :
b1011011011011011 ;
b1011011011011011 J
b1101101 6
b1101101 I
b1111 <
b10 M
b10110110101010001001101101101101 G
12
13
1)
#174000
02
03
0)
#176000
b11011010 6
b11011010 I
1K
b1101101010100010011011011011010 G
17
b1110 <
12
13
1)
#178000
02
03
0)
#180000
0K
b10110100 6
b10110100 I
b1101 <
b0 M
07
b11011010101000100110110110110100 G
b0 5
b0 :
b0 ;
b0 J
12
13
1)
#182000
02
03
0)
#184000
b1101001 6
b1101001 I
b10110100 5
b10110100 :
b10110100 ;
b10110100 J
b10110101010001001101101101101001 G
b1 M
b1100 <
12
13
1)
#186000
02
03
0)
#188000
b110100110110100 5
b110100110110100 :
b110100110110100 ;
b110100110110100 J
b11010011 6
b11010011 I
b1011 <
b10 M
b1101010100010011011011011010011 G
12
13
1)
#190000
02
03
0)
#192000
b10100110 6
b10100110 I
1K
b11010101000100110110110110100110 G
17
b1010 <
12
13
1)
#194000
02
03
0)
#196000
0K
b1001100 6
b1001100 I
b1001 <
b0 M
07
b10101010001001101101101101001100 G
b0 5
b0 :
b0 ;
b0 J
12
13
1)
#198000
02
03
0)
#200000
b10011001 6
b10011001 I
b1001100 5
b1001100 :
b1001100 ;
b1001100 J
b1010100010011011011011010011001 G
b1 M
b1000 <
12
13
1)
#202000
02
03
0)
#204000
b1001100101001100 5
b1001100101001100 :
b1001100101001100 ;
b1001100101001100 J
b110010 6
b110010 I
b111 <
b10 M
b10101000100110110110110100110010 G
12
13
1)
#206000
02
03
0)
#208000
b1100100 6
b1100100 I
1K
b1010001001101101101101001100100 G
17
b110 <
12
13
1)
#210000
02
03
0)
#212000
0K
b11001000 6
b11001000 I
b101 <
b0 M
07
b10100010011011011011010011001000 G
b0 5
b0 :
b0 ;
b0 J
12
13
1)
#214000
02
03
0)
#216000
b10010000 6
b10010000 I
b11001000 5
b11001000 :
b11001000 ;
b11001000 J
b1000100110110110110100110010000 G
b1 M
b100 <
12
13
1)
#218000
02
03
0)
#220000
b1001000011001000 5
b1001000011001000 :
b1001000011001000 ;
b1001000011001000 J
b100001 6
b100001 I
b11 <
b10 M
b10001001101101101101001100100001 G
12
13
1)
#222000
02
03
0)
#224000
b1000010 6
b1000010 I
1K
b10011011011011010011001000010 G
17
b10 <
12
13
1)
#226000
02
03
0)
#228000
0K
b10000100 6
b10000100 I
b1 <
b0 M
07
b100110110110110100110010000100 G
b0 5
b0 :
b0 ;
b0 J
12
13
1)
#230000
02
03
0)
#232000
b1001 6
b1001 I
b10000100 5
b10000100 :
b10000100 ;
b10000100 J
b1001101101101101001100100001001 G
b1 M
b0 <
12
13
1)
#234000
02
03
0)
#236000
b100110000100 5
b100110000100 :
b100110000100 ;
b100110000100 J
b10011 6
b10011 I
b10000 <
b10000100 D
1&
1A
b10 M
b10011011011011010011001000010011 G
12
13
1)
#238000
02
03
0)
#240000
b100110 6
b100110 I
1K
b110110110110100110010000100110 G
17
b1111 =
b1000010 D
12
13
1)
#242000
02
03
0)
#244000
0K
b1001100 6
b1001100 I
b1110 =
b100001 D
b0 M
07
b1101101101101001100100001001100 G
b0 5
b0 :
b0 ;
b0 J
12
13
1)
#246000
02
03
0)
#248000
b10011000 6
b10011000 I
b1001100 5
b1001100 :
b1001100 ;
b1001100 J
b11011011011010011001000010011000 G
b1 M
b1101 =
b10000 D
1'
12
13
1)
#250000
02
03
0)
#252000
b1001100001001100 5
b1001100001001100 :
b1001100001001100 ;
b1001100001001100 J
b110000 6
b110000 I
b1100 =
b1000 D
0'
b10 M
b10110110110100110010000100110000 G
12
13
1)
#254000
02
03
0)
#256000
b1100000 6
b1100000 I
1K
b1101101101001100100001001100000 G
17
b1011 =
b100 D
12
13
1)
#258000
02
03
0)
#260000
0K
b11000000 6
b11000000 I
b1010 =
b10 D
b0 M
07
b11011011010011001000010011000000 G
b0 5
b0 :
b0 ;
b0 J
12
13
1)
#262000
02
03
0)
#264000
b10000000 6
b10000000 I
b11000000 5
b11000000 :
b11000000 ;
b11000000 J
b10110110100110010000100110000000 G
b1 M
b1001 =
b1 D
12
13
1)
#266000
02
03
0)
#268000
b1000000011000000 5
b1000000011000000 :
b1000000011000000 ;
b1000000011000000 J
b1 6
b1 I
b1000 =
b0 D
1'
b10 M
b1101101001100100001001100000001 G
12
13
1)
#270000
02
03
0)
#272000
b11 6
b11 I
1K
b11011010011001000010011000000011 G
17
b111 =
0'
12
13
1)
#274000
02
03
0)
#276000
0K
b110 6
b110 I
b110 =
b0 M
07
b10110100110010000100110000000110 G
b0 5
b0 :
b0 ;
b0 J
12
13
1)
#278000
02
03
0)
#280000
b1101 6
b1101 I
b110 5
b110 :
b110 ;
b110 J
b1101001100100001001100000001101 G
b1 M
b101 =
12
13
1)
#282000
02
03
0)
#284000
b110100000110 5
b110100000110 :
b110100000110 ;
b110100000110 J
b11011 6
b11011 I
b100 =
b10 M
b11010011001000010011000000011011 G
12
13
1)
#286000
02
03
0)
#288000
b110111 6
b110111 I
1K
b10100110010000100110000000110111 G
17
b11 =
12
13
1)
#290000
02
03
0)
#292000
0K
b1101110 6
b1101110 I
b10 =
b0 M
07
b1001100100001001100000001101110 G
b0 5
b0 :
b0 ;
b0 J
12
13
1)
#294000
02
03
0)
#296000
b11011101 6
b11011101 I
b1101110 5
b1101110 :
b1101110 ;
b1101110 J
b10011001000010011000000011011101 G
b1 M
b1 =
12
13
1)
#298000
02
03
0)
#300000
b1101110101101110 5
b1101110101101110 :
b1101110101101110 ;
b1101110101101110 J
b10111010 6
b10111010 I
b0 =
b10 M
b110010000100110000000110111010 G
12
13
1)
#302000
02
03
0)
#304000
b1110101 6
b1110101 I
1K
b1100100001001100000001101110101 G
17
b10000 =
b1101110 C
0&
0A
12
13
1)
#306000
02
03
0)
#308000
0K
b11101011 6
b11101011 I
b1111 <
b110111 C
b0 M
07
b11001000010011000000011011101011 G
b0 5
b0 :
b0 ;
b0 J
12
13
1)
#310000
02
03
0)
#312000
b11010110 6
b11010110 I
b11101011 5
b11101011 :
b11101011 ;
b11101011 J
b10010000100110000000110111010110 G
b1 M
b1110 <
b11011 C
1'
12
13
1)
#314000
02
03
0)
#316000
b1101011011101011 5
b1101011011101011 :
b1101011011101011 ;
b1101011011101011 J
b10101100 6
b10101100 I
b1101 <
b1101 C
b10 M
b100001001100000001101110101100 G
12
13
1)
#318000
02
03
0)
#320000
b1011000 6
b1011000 I
1K
b1000010011000000011011101011000 G
17
b1100 <
b110 C
12
13
1)
#322000
02
03
0)
#324000
0K
b10110001 6
b10110001 I
b1011 <
b11 C
0'
b0 M
07
b10000100110000000110111010110001 G
b0 5
b0 :
b0 ;
b0 J
12
13
1)
#326000
02
03
0)
#328000
b1100011 6
b1100011 I
b10110001 5
b10110001 :
b10110001 ;
b10110001 J
b1001100000001101110101100011 G
b1 M
b1010 <
b1 C
1'
12
13
1)
#330000
02
03
0)
#332000
b110001110110001 5
b110001110110001 :
b110001110110001 ;
b110001110110001 J
b11000110 6
b11000110 I
b1001 <
b0 C
b10 M
b10011000000011011101011000110 G
12
13
1)
#334000
02
03
0)
#336000
b10001101 6
b10001101 I
1K
b100110000000110111010110001101 G
17
b1000 <
0'
12
13
1)
#338000
02
03
0)
#340000
0K
b11011 6
b11011 I
b111 <
b0 M
07
b1001100000001101110101100011011 G
b0 5
b0 :
b0 ;
b0 J
12
13
1)
#342000
02
03
0)
#344000
b110110 6
b110110 I
b11011 5
b11011 :
b11011 ;
b11011 J
b10011000000011011101011000110110 G
b1 M
b110 <
12
13
1)
#346000
02
03
0)
#348000
b11011000011011 5
b11011000011011 :
b11011000011011 ;
b11011000011011 J
b1101100 6
b1101100 I
b101 <
b10 M
b110000000110111010110001101100 G
12
13
1)
#350000
02
03
0)
#352000
b11011000 6
b11011000 I
1K
b1100000001101110101100011011000 G
17
b100 <
12
13
1)
#354000
02
03
0)
#356000
0K
b10110000 6
b10110000 I
b11 <
b0 M
07
b11000000011011101011000110110000 G
b0 5
b0 :
b0 ;
b0 J
12
13
1)
#358000
02
03
0)
#360000
b1100000 6
b1100000 I
b10110000 5
b10110000 :
b10110000 ;
b10110000 J
b10000000110111010110001101100000 G
b1 M
b10 <
12
13
1)
#362000
02
03
0)
#364000
b110000010110000 5
b110000010110000 :
b110000010110000 ;
b110000010110000 J
b11000000 6
b11000000 I
b1 <
b10 M
b1101110101100011011000000 G
12
13
1)
#366000
02
03
0)
#368000
b10000000 6
b10000000 I
1K
b11011101011000110110000000 G
17
b0 <
12
13
1)
#370000
02
03
0)
#372000
0K
b1 6
b1 I
b10000 <
b10110000 D
1&
1A
b0 M
07
b110111010110001101100000001 G
b0 5
b0 :
b0 ;
b0 J
12
13
1)
#374000
02
03
0)
#376000
b10 6
b10 I
b1 5
b1 :
b1 ;
b1 J
b1101110101100011011000000010 G
b1 M
b1111 =
b1011000 D
12
13
1)
#378000
02
03
0)
#380000
b1000000001 5
b1000000001 :
b1000000001 ;
b1000000001 J
b100 6
b100 I
b1110 =
b101100 D
b10 M
b11011101011000110110000000100 G
12
13
1)
#382000
02
03
0)
#384000
b1000 6
b1000 I
1K
b110111010110001101100000001000 G
17
b1101 =
b10110 D
12
13
1)
#386000
02
03
0)
#388000
0K
b10001 6
b10001 I
b1100 =
b1011 D
b0 M
07
b1101110101100011011000000010001 G
b0 5
b0 :
b0 ;
b0 J
12
13
1)
#390000
02
03
0)
#392000
b100011 6
b100011 I
b10001 5
b10001 :
b10001 ;
b10001 J
b11011101011000110110000000100011 G
b1 M
b1011 =
b101 D
1'
12
13
1)
#394000
02
03
0)
#396000
b10001100010001 5
b10001100010001 :
b10001100010001 ;
b10001100010001 J
b1000110 6
b1000110 I
b1010 =
b10 D
b10 M
b10111010110001101100000001000110 G
12
13
1)
#398000
02
03
0)
#400000
b10001101 6
b10001101 I
1K
b1110101100011011000000010001101 G
17
b1001 =
b1 D
0'
12
13
1)
#402000
02
03
0)
#404000
0K
b11011 6
b11011 I
b1000 =
b0 D
1'
b0 M
07
b11101011000110110000000100011011 G
b0 5
b0 :
b0 ;
b0 J
12
13
1)
#406000
02
03
0)
#408000
b110111 6
b110111 I
b11011 5
b11011 :
b11011 ;
b11011 J
b11010110001101100000001000110111 G
b1 M
b111 =
0'
12
13
1)
#410000
02
03
0)
#412000
b11011100011011 5
b11011100011011 :
b11011100011011 ;
b11011100011011 J
b1101111 6
b1101111 I
b110 =
b10 M
b10101100011011000000010001101111 G
12
13
1)
#414000
02
03
0)
#416000
b11011110 6
b11011110 I
1K
b1011000110110000000100011011110 G
17
b101 =
12
13
1)
#418000
02
03
0)
#420000
0K
b10111100 6
b10111100 I
b100 =
b0 M
07
b10110001101100000001000110111100 G
b0 5
b0 :
b0 ;
b0 J
12
13
1)
#422000
02
03
0)
#424000
b1111001 6
b1111001 I
b10111100 5
b10111100 :
b10111100 ;
b10111100 J
b1100011011000000010001101111001 G
b1 M
b11 =
12
13
1)
#426000
02
03
0)
#428000
b111100110111100 5
b111100110111100 :
b111100110111100 ;
b111100110111100 J
b11110010 6
b11110010 I
b10 =
b10 M
b11000110110000000100011011110010 G
12
13
1)
#430000
02
03
0)
#432000
b11100101 6
b11100101 I
1K
b10001101100000001000110111100101 G
17
b1 =
12
13
1)
#434000
02
03
0)
#436000
0K
b11001010 6
b11001010 I
b0 =
b0 M
07
b11011000000010001101111001010 G
b0 5
b0 :
b0 ;
b0 J
12
13
1)
#438000
02
03
0)
#440000
b10010101 6
b10010101 I
b11001010 5
b11001010 :
b11001010 ;
b11001010 J
b110110000000100011011110010101 G
b1 M
b10000 =
0&
0A
12
13
1)
#442000
02
03
0)
#444000
b1001010111001010 5
b1001010111001010 :
b1001010111001010 ;
b1001010111001010 J
b101011 6
b101011 I
b1111 <
b10 M
b1101100000001000110111100101011 G
12
13
1)
#446000
02
03
0)
#448000
b1010110 6
b1010110 I
1K
b11011000000010001101111001010110 G
17
b1110 <
12
13
1)
#450000
02
03
0)
#452000
0K
b10101100 6
b10101100 I
b1101 <
b0 M
07
b10110000000100011011110010101100 G
b0 5
b0 :
b0 ;
b0 J
12
13
1)
#454000
02
03
0)
#456000
b1011001 6
b1011001 I
b10101100 5
b10101100 :
b10101100 ;
b10101100 J
b1100000001000110111100101011001 G
b1 M
b1100 <
12
13
1)
#458000
02
03
0)
#460000
b101100110101100 5
b101100110101100 :
b101100110101100 ;
b101100110101100 J
b10110011 6
b10110011 I
b1011 <
b10 M
b11000000010001101111001010110011 G
12
13
1)
#462000
02
03
0)
#464000
b1100110 6
b1100110 I
1K
b10000000100011011110010101100110 G
17
b1010 <
12
13
1)
#466000
02
03
0)
#468000
0K
b11001100 6
b11001100 I
b1001 <
b0 M
07
b1000110111100101011001100 G
b0 5
b0 :
b0 ;
b0 J
12
13
1)
#470000
02
03
0)
#472000
b10011000 6
b10011000 I
b11001100 5
b11001100 :
b11001100 ;
b11001100 J
b10001101111001010110011000 G
b1 M
b1000 <
12
13
1)
#474000
02
03
0)
#476000
b1001100011001100 5
b1001100011001100 :
b1001100011001100 ;
b1001100011001100 J
b110000 6
b110000 I
b111 <
b10 M
b100011011110010101100110000 G
12
13
1)
#478000
02
03
0)
#480000
b1100001 6
b1100001 I
1K
b1000110111100101011001100001 G
17
b110 <
12
13
1)
#482000
02
03
0)
#484000
0K
b11000010 6
b11000010 I
b101 <
b0 M
07
b10001101111001010110011000010 G
b0 5
b0 :
b0 ;
b0 J
12
13
1)
#486000
02
03
0)
#488000
b10000101 6
b10000101 I
b11000010 5
b11000010 :
b11000010 ;
b11000010 J
b100011011110010101100110000101 G
b1 M
b100 <
12
13
1)
#490000
02
03
0)
#492000
b1000010111000010 5
b1000010111000010 :
b1000010111000010 ;
b1000010111000010 J
b1010 6
b1010 I
b11 <
b10 M
b1000110111100101011001100001010 G
12
13
1)
#494000
02
03
0)
#496000
b10100 6
b10100 I
1K
b10001101111001010110011000010100 G
17
b10 <
12
13
1)
#498000
02
03
0)
#500000
0K
b101000 6
b101000 I
b1 <
b0 M
07
b11011110010101100110000101000 G
b0 5
b0 :
b0 ;
b0 J
12
13
1)
#502000
02
03
0)
#504000
b1010001 6
b1010001 I
b101000 5
b101000 :
b101000 ;
b101000 J
b110111100101011001100001010001 G
b1 M
b0 <
12
13
1)
#506000
02
03
0)
#508000
b101000100101000 5
b101000100101000 :
b101000100101000 ;
b101000100101000 J
b10100011 6
b10100011 I
b10000 <
b101000 D
1&
1A
b10 M
b1101111001010110011000010100011 G
12
13
1)
#510000
02
03
0)
#512000
b1000110 6
b1000110 I
1K
b11011110010101100110000101000110 G
17
b1111 =
b10100 D
12
13
1)
#514000
02
03
0)
#516000
0K
b10001101 6
b10001101 I
b1110 =
b1010 D
b0 M
07
b10111100101011001100001010001101 G
b0 5
b0 :
b0 ;
b0 J
12
13
1)
#518000
02
03
0)
#520000
b11010 6
b11010 I
b10001101 5
b10001101 :
b10001101 ;
b10001101 J
b1111001010110011000010100011010 G
b1 M
b1101 =
b101 D
12
13
1)
#522000
02
03
0)
#524000
b1101010001101 5
b1101010001101 :
b1101010001101 ;
b1101010001101 J
b110100 6
b110100 I
b1100 =
b10 D
1'
b10 M
b11110010101100110000101000110100 G
12
13
1)
#526000
02
03
0)
#528000
b1101001 6
b1101001 I
1K
b11100101011001100001010001101001 G
17
b1011 =
b1 D
0'
12
13
1)
#530000
02
03
0)
#532000
0K
b11010011 6
b11010011 I
b1010 =
b0 D
1'
b0 M
07
b11001010110011000010100011010011 G
b0 5
b0 :
b0 ;
b0 J
12
13
1)
#534000
02
03
0)
#536000
b10100110 6
b10100110 I
b11010011 5
b11010011 :
b11010011 ;
b11010011 J
b10010101100110000101000110100110 G
b1 M
b1001 =
0'
12
13
1)
#538000
02
03
0)
#540000
b1010011011010011 5
b1010011011010011 :
b1010011011010011 ;
b1010011011010011 J
b1001100 6
b1001100 I
b1000 =
b10 M
b101011001100001010001101001100 G
12
13
1)
#542000
02
03
0)
#544000
b10011000 6
b10011000 I
1K
b1010110011000010100011010011000 G
17
b111 =
12
13
1)
#546000
02
03
0)
#548000
0K
b110001 6
b110001 I
b110 =
b0 M
07
b10101100110000101000110100110001 G
b0 5
b0 :
b0 ;
b0 J
12
13
1)
#550000
02
03
0)
#552000
b1100011 6
b1100011 I
b110001 5
b110001 :
b110001 ;
b110001 J
b1011001100001010001101001100011 G
b1 M
b101 =
12
13
1)
#554000
02
03
0)
#556000
b110001100110001 5
b110001100110001 :
b110001100110001 ;
b110001100110001 J
b11000110 6
b11000110 I
b100 =
b10 M
b10110011000010100011010011000110 G
12
13
1)
#558000
02
03
0)
#560000
b10001100 6
b10001100 I
1K
b1100110000101000110100110001100 G
17
b11 =
12
13
1)
#562000
02
03
0)
#564000
0K
b11000 6
b11000 I
b10 =
b0 M
07
b11001100001010001101001100011000 G
b0 5
b0 :
b0 ;
b0 J
12
13
1)
#566000
02
03
0)
#568000
b110001 6
b110001 I
b11000 5
b11000 :
b11000 ;
b11000 J
b10011000010100011010011000110001 G
b1 M
b1 =
12
13
1)
#570000
02
03
0)
#572000
b11000100011000 5
b11000100011000 :
b11000100011000 ;
b11000100011000 J
b1100011 6
b1100011 I
b0 =
b10 M
b110000101000110100110001100011 G
12
13
1)
#574000
02
03
0)
#576000
b11000110 6
b11000110 I
1K
b1100001010001101001100011000110 G
17
b10000 =
b11000 C
0&
0A
12
13
1)
#578000
02
03
0)
#580000
0K
b10001100 6
b10001100 I
b1111 <
b1100 C
b0 M
07
b11000010100011010011000110001100 G
b0 5
b0 :
b0 ;
b0 J
12
13
1)
#582000
02
03
0)
#584000
b11001 6
b11001 I
b10001100 5
b10001100 :
b10001100 ;
b10001100 J
b10000101000110100110001100011001 G
b1 M
b1110 <
b110 C
12
13
1)
#586000
02
03
0)
#588000
b1100110001100 5
b1100110001100 :
b1100110001100 ;
b1100110001100 J
b110010 6
b110010 I
b1101 <
b11 C
b10 M
b1010001101001100011000110010 G
12
13
1)
#590000
02
03
0)
#592000
b1100101 6
b1100101 I
1K
b10100011010011000110001100101 G
17
b1100 <
b1 C
1'
12
13
1)
#594000
02
03
0)
#596000
0K
b11001010 6
b11001010 I
b1011 <
b0 C
b0 M
07
b101000110100110001100011001010 G
b0 5
b0 :
b0 ;
b0 J
12
13
1)
#598000
02
03
0)
#600000
b10010100 6
b10010100 I
b11001010 5
b11001010 :
b11001010 ;
b11001010 J
b1010001101001100011000110010100 G
b1 M
b1010 <
0'
12
13
1)
#602000
02
03
0)
#604000
b1001010011001010 5
b1001010011001010 :
b1001010011001010 ;
b1001010011001010 J
b101000 6
b101000 I
b1001 <
b10 M
b10100011010011000110001100101000 G
12
13
1)
#606000
02
03
0)
#608000
b1010000 6
b1010000 I
1K
b1000110100110001100011001010000 G
17
b1000 <
12
13
1)
#610000
02
03
0)
#612000
0K
b10100000 6
b10100000 I
b111 <
b0 M
07
b10001101001100011000110010100000 G
b0 5
b0 :
b0 ;
b0 J
12
13
1)
#614000
02
03
0)
#616000
b1000001 6
b1000001 I
b10100000 5
b10100000 :
b10100000 ;
b10100000 J
b11010011000110001100101000001 G
b1 M
b110 <
12
13
1)
#618000
02
03
0)
#620000
b100000110100000 5
b100000110100000 :
b100000110100000 ;
b100000110100000 J
b10000010 6
b10000010 I
b101 <
b10 M
b110100110001100011001010000010 G
12
13
1)
#622000
02
03
0)
#624000
b100 6
b100 I
1K
b1101001100011000110010100000100 G
17
b100 <
12
13
1)
#626000
02
03
0)
